Let's study Yield Curves if they can predict Recessions! · Deepak Guneja website
…
Our dataframe df has three columns (variables):

symbol: the FRED database ticker symbol

date: already a date object

price: the actual yield on that date

The first thing would be to join this dataframe df with the dataframe mylookup so we have a more readable version of maturities, durations, etc.

yield_curve <-left_join(df,mylookup,by="symbol") 
yield_curve

## # A tibble: 6,774 x 5
##    symbol date       price var                   maturity
##    <chr>  <date>     <dbl> <chr>                 <fct>   
##  1 TB3MS  1960-01-01  4.35 3-Month Treasury Bill 3m      
##  2 TB3MS  1960-02-01  3.96 3-Month Treasury Bill 3m      
##  3 TB3MS  1960-03-01  3.31 3-Month Treasury Bill 3m      
##  4 TB3MS  1960-04-01  3.23 3-Month Treasury Bill 3m      
##  5 TB3MS  1960-05-01  3.29 3-Month Treasury Bill 3m      
##  6 TB3MS  1960-06-01  2.46 3-Month Treasury Bill 3m      
##  7 TB3MS  1960-07-01  2.3  3-Month Treasury Bill 3m      
##  8 TB3MS  1960-08-01  2.3  3-Month Treasury Bill 3m      
##  9 TB3MS  1960-09-01  2.48 3-Month Treasury Bill 3m      
## 10 TB3MS  1960-10-01  2.3  3-Month Treasury Bill 3m      
## # ... with 6,764 more rows
…
3-month and 10-year yields since 1999

cols <- c('date', 'var', 'price') #creating a vector of columns which we need

yield_3mon_10yr_1999 <- yield_curve[, cols] %>% 
  filter(var %in% c('3-Month Treasury Bill', '10-Year Treasury Rate') & year(date) >= 1999) %>% 
  pivot_wider(names_from = var, values_from = price) #filtering the columns we need and pivoting wider to have 3-Month Treasury Bill and 10-year Treasury Rate as columns

yield_3mon_10yr_1999

## # A tibble: 261 x 3
##    date       `3-Month Treasury Bill` `10-Year Treasury Rate`
##    <date>                       <dbl>                   <dbl>
##  1 1999-01-01                    4.34                    4.72
##  2 1999-02-01                    4.44                    5   
##  3 1999-03-01                    4.44                    5.23
##  4 1999-04-01                    4.29                    5.18
##  5 1999-05-01                    4.5                     5.54
##  6 1999-06-01                    4.57                    5.9 
##  7 1999-07-01                    4.55                    5.79
##  8 1999-08-01                    4.72                    5.94
##  9 1999-09-01                    4.68                    5.92
## 10 1999-10-01                    4.86                    6.11
## # ... with 251 more rows
…
