Let's use use Gapminder data to find interesting facts.. · Deepak Guneja website
…
Top 5 countries that have seen the greatest improvement in mortality rates, as well as those 5 countries where mortality rates have had the least improvement or even deterioration.

cleaned_data_latest <- Combined_data_2 %>% filter(!is.na(SH.DYN.MORT)) %>% group_by(region, country) %>% 
  top_n(n=1, wt=date) %>% select(region, country, SH.DYN.MORT, date)

cleaned_data_oldest <- Combined_data_2 %>% filter(!is.na(SH.DYN.MORT)) %>% group_by(region, country) %>% 
  top_n(n=1, wt=-date) %>% select(region, country, SH.DYN.MORT, date)

improvement_data <- cleaned_data_latest %>% inner_join(cleaned_data_oldest,
                                                       by=c("region", "country"),
                                                       suffix = c("_latest", "_oldest")) %>% 
  mutate(improvement = -((SH.DYN.MORT_latest - SH.DYN.MORT_oldest)/SH.DYN.MORT_oldest)*100.0) #negative sign because reduction in mortality is actually improvement in mortality
improvement_data

## # A tibble: 193 x 7
## # Groups:   region, country [193]
##    region country SH.DYN.MORT_lat~ date_latest SH.DYN.MORT_old~ date_oldest
##    <chr>  <chr>              <dbl>       <dbl>            <dbl>       <dbl>
##  1 South~ Afghan~             67.6        2016            345.         1962
##  2 Sub-S~ Angola              84.2        2016            237.         1980
##  3 Europ~ Albania              9.4        2016             96.2        1978
##  4 Europ~ Andorra              3.4        2016             17.1        1985
##  5 Middl~ United~              7.8        2016            200.         1960
##  6 Latin~ Argent~             10.9        2016             72.5        1969
##  7 Europ~ Armenia             13.7        2016             86.2        1976
##  8 Latin~ Antigu~              7.4        2016             86.2        1960
##  9 East ~ Austra~              3.8        2016             24.8        1960
## 10 Europ~ Austria              3.6        2016             42.8        1960
## # ... with 183 more rows, and 1 more variable: improvement <dbl>

top_5_improvements_by_region <- improvement_data %>% group_by(region) %>% top_n(n=5, wt=improvement) %>% arrange(region, -improvement)
top_5_improvements_by_region

## # A tibble: 32 x 7
## # Groups:   region [7]
##    region country SH.DYN.MORT_lat~ date_latest SH.DYN.MORT_old~ date_oldest
##    <chr>  <chr>              <dbl>       <dbl>            <dbl>       <dbl>
##  1 East ~ Korea,~              3.4        2016            112.         1960
##  2 East ~ Singap~              2.7        2016             47.7        1960
##  3 East ~ Japan                2.7        2016             39.7        1960
##  4 East ~ Thaila~             10.3        2016            146.         1960
##  5 East ~ China                9.9        2016            118.         1969
##  6 Europ~ Portug~              3.6        2016            114.         1960
##  7 Europ~ Turkey              12.1        2016            257.         1960
##  8 Europ~ Italy                3.4        2016             51.9        1960
##  9 Europ~ Cyprus               2.6        2016             38.2        1971
## 10 Europ~ Poland               4.7        2016             65.1        1960
## # ... with 22 more rows, and 1 more variable: improvement <dbl>
…
bottom_5_improvements_by_region <- improvement_data %>% group_by(region) %>% top_n(n=5, wt=-improvement) %>% arrange(region, improvement)
bottom_5_improvements_by_region

## # A tibble: 32 x 7
## # Groups:   region [7]
##    region country SH.DYN.MORT_lat~ date_latest SH.DYN.MORT_old~ date_oldest
##    <chr>  <chr>              <dbl>       <dbl>            <dbl>       <dbl>
##  1 East ~ Micron~             32.5        2016             56.5        1981
##  2 East ~ Korea,~             20          2016             35.1        1985
##  3 East ~ Palau               19.1        2016             36.4        1985
##  4 East ~ Nauru               33.9        2016             74.1        1985
##  5 East ~ Tuvalu              26.4        2016             80.5        1975
##  6 Europ~ Monaco               3.4        2016              9.7        1985
##  7 Europ~ Turkme~             42.2        2016            133.         1977
##  8 Europ~ Slovak~              6.1        2016             21.6        1981
##  9 Europ~ Ukraine              9.2        2016             33.8        1971
## 10 Europ~ Moldova             15.3        2016             64.1        1971
## # ... with 22 more rows, and 1 more variable: improvement <dbl>
…
